%YAML 1.1
%TAG !u! tag:unity3d.com,2011:
--- !u!21 &2100000
Material:
  serializedVersion: 6
  m_ObjectHideFlags: 0
  m_CorrespondingSourceObject: {fileID: 0}
  m_PrefabInstance: {fileID: 0}
  m_PrefabAsset: {fileID: 0}
  m_Name: onduloDamier
  m_Shader: {fileID: 4800000, guid: 1596ca0d48957284587d605b712f4e49, type: 3}
  m_ShaderKeywords: 
  m_LightmapFlags: 4
  m_EnableInstancingVariants: 0
  m_DoubleSidedGI: 0
  m_CustomRenderQueue: -1
  stringTagMap: {}
  disabledShaderPasses: []
  m_SavedProperties:
    serializedVersion: 3
    m_TexEnvs:
    - _BumpMap:
        m_Texture: {fileID: 0}
        m_Scale: {x: 1, y: 1}
        m_Offset: {x: 0, y: 0}
    - _DetailAlbedoMap:
        m_Texture: {fileID: 0}
        m_Scale: {x: 1, y: 1}
        m_Offset: {x: 0, y: 0}
    - _DetailMask:
        m_Texture: {fileID: 0}
        m_Scale: {x: 1, y: 1}
        m_Offset: {x: 0, y: 0}
    - _DetailNormalMap:
        m_Texture: {fileID: 0}
        m_Scale: {x: 1, y: 1}
        m_Offset: {x: 0, y: 0}
    - _EmissionMap:
        m_Texture: {fileID: 0}
        m_Scale: {x: 1, y: 1}
        m_Offset: {x: 0, y: 0}
    - _MainTex:
        m_Texture: {fileID: 0}
        m_Scale: {x: 1, y: 1}
        m_Offset: {x: 0, y: 0}
    - _MainTexture:
        m_Texture: {fileID: 10904, guid: 0000000000000000f000000000000000, type: 0}
        m_Scale: {x: 1, y: 1}
        m_Offset: {x: 0, y: 0}
    - _MetallicGlossMap:
        m_Texture: {fileID: 0}
        m_Scale: {x: 1, y: 1}
        m_Offset: {x: 0, y: 0}
    - _OcclusionMap:
        m_Texture: {fileID: 0}
        m_Scale: {x: 1, y: 1}
        m_Offset: {x: 0, y: 0}
    - _ParallaxMap:
        m_Texture: {fileID: 0}
        m_Scale: {x: 1, y: 1}
        m_Offset: {x: 0, y: 0}
    m_Floats:
    - _BumpScale: 1
    - _CircleRadius: 0.5
    - _CircleRadiusOrbite: 0.5
    - _Cutoff: 0.5
    - _Density: 12
    - _DetailNormalMapScale: 1
    - _Direction: 0
    - _DstBlend: 0
    - _GlossMapScale: 1
    - _Glossiness: 0.5
    - _GlossyReflections: 1
    - _GridScale: 5
    - _GridSpacing: 1
    - _GridThickness: 0.2
    - _Metallic: 0
    - _Mode: 0
    - _NbCircle: 2
    - _NumberOfBands: 2
    - _OcclusionStrength: 1
    - _Parallax: 0.02
    - _SizeMid1: 0.7
    - _SizeMid2: 0.7
    - _SizeMid3: 0.7
    - _SizeMid4: 0.7
    - _SmoothnessTextureChannel: 0
    - _SpecularHighlights: 1
    - _SrcBlend: 1
    - _Tiling: 1
    - _UVSec: 0
    - _WarpScale: 1
    - _WarpTiling: 1
    - _X: 0.5
    - _Y: 0.5
    - _ZWrite: 1
    m_Colors:
    - _BackgroundColor: {r: 0.07271271, g: 0.10867928, b: 0.3584906, a: 1}
    - _BandEndColor: {r: 0.4811321, g: 0, b: 0.4811321, a: 1}
    - _BandMidColor: {r: 0, g: 0, b: 0, a: 1}
    - _BandStartColor: {r: 1, g: 0.99593496, b: 0, a: 1}
    - _BaseColour: {r: 0.5943396, g: 0.008410451, b: 0.008410451, a: 0}
    - _Color: {r: 0.6037736, g: 0, b: 0, a: 0}
    - _Color1: {r: 1, g: 0.62319684, b: 0, a: 1}
    - _Color2: {r: 1, g: 1, b: 1, a: 1}
    - _EmissionColor: {r: 0, g: 0, b: 0, a: 1}
    - _GridColour: {r: 0.5, g: 1, b: 1, a: 1}
    - _backgroundColor: {r: 0.3490566, g: 0.051041294, b: 0.051041294, a: 1}
